[{"id":1,"fecha":"11/5/2018","importe":17,"latitud":-26.3448416,"longitud":28.3622933},
{"id":2,"fecha":"2/18/2019","importe":72,"latitud":39.55699,"longitud":-8.736667},
{"id":3,"fecha":"3/11/2018","importe":24,"latitud":53.3881832,"longitud":-6.2611953},
{"id":4,"fecha":"7/29/2018","importe":48,"latitud":40.628952,"longitud":122.511257},
{"id":5,"fecha":"9/17/2018","importe":31,"latitud":33.437877,"longitud":113.609286},
{"id":6,"fecha":"8/23/2018","importe":59,"latitud":5.341352,"longitud":-75.730957},
{"id":7,"fecha":"4/29/2018","importe":38,"latitud":36.8517527,"longitud":138.3628039},
{"id":8,"fecha":"4/15/2018","importe":41,"latitud":6.4387946,"longitud":100.1947477},
{"id":9,"fecha":"1/24/2019","importe":67,"latitud":43.3032794,"longitud":5.380142},
{"id":10,"fecha":"9/15/2018","importe":52,"latitud":45.8800176,"longitud":15.8550922},
{"id":11,"fecha":"11/10/2018","importe":19,"latitud":55.7242814,"longitud":37.1853286},
{"id":12,"fecha":"9/22/2018","importe":46,"latitud":-23.3549445,"longitud":-47.8451996},
{"id":13,"fecha":"10/21/2018","importe":79,"latitud":8.8702881,"longitud":-79.810063},
{"id":14,"fecha":"1/6/2019","importe":70,"latitud":22.705124,"longitud":113.316811},
{"id":15,"fecha":"8/28/2018","importe":94,"latitud":-10.344067,"longitud":123.6231723},
{"id":16,"fecha":"12/3/2018","importe":44,"latitud":55.3040194,"longitud":83.6056675},
{"id":17,"fecha":"6/15/2018","importe":23,"latitud":13.74372,"longitud":-15.7732633},
{"id":18,"fecha":"8/28/2018","importe":40,"latitud":39.732646,"longitud":112.040028},
{"id":19,"fecha":"4/19/2018","importe":41,"latitud":36.2013157,"longitud":117.6712891},
{"id":20,"fecha":"3/29/2018","importe":91,"latitud":58.9637041,"longitud":126.2725057},
{"id":21,"fecha":"4/4/2018","importe":57,"latitud":6.9333793,"longitud":79.8441645},
{"id":22,"fecha":"10/23/2018","importe":37,"latitud":44.348809,"longitud":133.9326833},
{"id":23,"fecha":"3/9/2018","importe":85,"latitud":46.2686934,"longitud":95.2732977}]
